digraph graphname {
    size="26,10";
    rankdir="LR";
    splines=ortho;
    graph [fontname = "sans"];
    node [fontname = "sans", style=filled];
    edge [fontname = "sans", color=gray50];
    a[label="Analog  ", shape=cds, color="#BBBBBB", fillcolor=grey93, fontcolor="#999998"];
    b[label="FID", shape=folder, color="#BBBBBB", fillcolor=grey93];
    c[label="2dseq", shape=folder, color="#BBBBBB", fillcolor=grey93];
    d[label="3D Format", shape=folder, color="#BBBBBB", fillcolor=grey93];
    e[label="Preprocessed", shape=folder, color="#BBBBBB", fillcolor=grey93];
    f[label="Statistic", shape=folder, color="#BBBBBB", fillcolor=grey93];
    g[label="Plot", shape=folder, color="#BBBBBB", fillcolor=grey93];
    a -> b [color="#1b81e5"];
    subgraph cluster1 {
        b -> c [color="#1b81e5"];
        label = "Bruker";
        fontcolor = "#1873cc";
        color = "#1b81e5";
    }
    c -> d[color="#EDA000"];
    subgraph cluster2 {
        d -> e[color="#EDA000"];
        e -> f[color="#EDA000"];
        f -> g[color="#EDA000"];
        label = "SAMRI";
        fontcolor = "#DE9A00";
        color = "#EDA000";
    }
}
